{
	"name" : "hud",
	"entities" : [
		{ 	"template" : "entities/healthbar.json",
			"components" : {
				"Hud" : {"watch" : "Health", "target" : "player", "relative" : true}
			}
		}
	],
	"collision" : {

	}
}